Ch. 06
…
Ch. 06

JAMM

19/07/2021

Naive Bayes

To predict party affiliation. Looking for common voting paterns from previous elections. Train wether a congressperson was a D or a R. USARLO PARA CLASIFICAR SI UNA ACCION ES RENTABLE O NO\

## # A tibble: 435 x 17
##    Class V1    V2    V3    V4    V5    V6    V7    V8    V9    V10   V11   V12  
##    <fct> <fct> <fct> <fct> <fct> <fct> <fct> <fct> <fct> <fct> <fct> <fct> <fct>
##  1 repu n     y     n     y     y     y     n     n     n     y     <NA>  y    
##  2 repu n     y     n     y     y     y     n     n     n     n     n     y    
##  3 demo <NA>  y     y     <NA>  y     y     n     n     n     n     y     n    
##  4 demo n     y     y     n     <NA>  y     n     n     n     n     y     n    
##  5 demo y     y     y     n     y     y     n     n     n     n     y     <NA> 
##  6 demo n     y     y     n     y     y     n     n     n     n     n     n    
##  7 demo n     y     n     y     y     y     n     n     n     n     n     n    
##  8 repu n     y     n     y     y     y     n     n     n     n     n     n    
##  9 repu n     y     n     y     y     y     n     n     n     n     n     y    
## 10 demo y     y     y     n     n     n     y     y     y     n     n     n    
## #  with 425 more rows, and 4 more variables: V13 <fct>, V14 <fct>, V15 <fct>,
## #   V16 <fct>
…
